{
  "images" : [
    {
      "idiom" : "universal",
      "filename" : "320x480.jpg",
      "scale" : "1x"
    },
    {
      "idiom" : "universal",
      "filename" : "640 × 1138.jpg",
      "scale" : "2x"
    },
    {
      "idiom" : "universal",
      "filename" : "1242 × 2208.jpg",
      "scale" : "3x"
    }
  ],
  "info" : {
    "version" : 1,
    "author" : "xcode"
  }
}